material mbeconic.001
{
	receive_shadows on
	technique
	{
		pass
		{
			ambient 0.500000 0.500000 0.500000 1.000000
			diffuse 0.470560 0.470560 0.470560 1.000000
			specular 0.000000 0.000000 0.000000 1.000000 1.250000
			emissive 0.000000 0.000000 0.000000 1.000000
			texture_unit
			{
				texture econic.jpg
				tex_address_mode wrap
				filtering trilinear
				colour_op alpha_blend
			}
		}
	}
}
