// textura_ genrated by blender2ogre 0.6.0

material textura_ 
{
    receive_shadows on 

    technique
    {
        pass textura_
        {
            ambient 0.686274528503418 0.686274528503418 0.686274528503418 1.0
            diffuse 0.5490196309837643 0.5490196309837643 0.5490196309837643 1.0
            specular 0.16470588743686676 0.16470588743686676 0.16470588743686676 1.0 12.5
            emissive 0.0 0.0 0.0 1.0

            alpha_to_coverage off
            colour_write on
            cull_hardware clockwise
            depth_check on
            depth_func less_equal
            depth_write on
            illumination_stage 
            light_clip_planes off
            light_scissor off
            lighting on
            normalise_normals off
            polygon_mode solid
            scene_blend one zero
            scene_blend_op add
            shading gouraud
            transparent_sorting on

        }
    }
}
