material Material.001
{
	receive_shadows on
	technique
	{
		pass
		{
			ambient 0.500000 0.500000 0.500000 1.000000
			diffuse 0.512000 0.512000 0.512000 1.000000
			specular 0.250000 0.250000 0.250000 1.000000 12.000000
			emissive 0.000000 0.000000 0.000000 1.000000
			texture_unit
			{
				texture delineator.png
				tex_address_mode wrap
				filtering trilinear
				colour_op alpha_blend
			}
		}
	}
}
